---
http_interactions:
- request:
    method: get
    uri: https://app.userengage.com/api/public/users/
    body:
      encoding: US-ASCII
      string: ''
    headers:
      User-Agent:
      - UserEngage-Ruby/0.0.6
      Authorization:
      - Token <my-test-token>
      Content-Type:
      - application/json
      Accept-Encoding:
      - gzip;q=1.0,deflate;q=0.6,identity;q=0.3
      Accept:
      - "*/*"
  response:
    status:
      code: 200
      message: OK
    headers:
      Date:
      - Thu, 25 Oct 2018 08:35:56 GMT
      Content-Type:
      - application/json
      Transfer-Encoding:
      - chunked
      Connection:
      - keep-alive
      Set-Cookie:
      - __cfduid=d2995562f95b2515708d589a3857baf0a1540456556; expires=Fri, 25-Oct-19
        08:35:56 GMT; path=/; domain=.userengage.com; HttpOnly
      Allow:
      - GET, POST, HEAD, OPTIONS
      X-Frame-Options:
      - SAMEORIGIN
      Vary:
      - Cookie
      Expect-Ct:
      - max-age=604800, report-uri="https://report-uri.cloudflare.com/cdn-cgi/beacon/expect-ct"
      Server:
      - cloudflare
      Cf-Ray:
      - 46f35a44edf963d9-FRA
    body:
      encoding: ASCII-8BIT
      string: '{"count":111,"next":"https://app.userengage.com/api/public/users/?page=2","previous":null,"results":[{"id":111,"key":"gpHcuWmhu4eT","name":"Markus
        Schwed","email":"markus@company-mood.com","gender":"unknown","status":"user","phone_number":null,"first_seen":"2018-02-09T10:42:13.956452Z","last_seen":"2018-10-24T13:28:59.264665Z","page_views":1191,"last_ip":"91.67.113.209","timezone":"Europe/Kaliningrad","city":"Alzey","region":"Rheinland-Pfalz","country":"Germany","unsubscribed":false,"browser_language":"de","score":0,"browser":"Firefox","os_type":"Windows
        10","resolution":"1920x1080","created_at":"2018-02-09T10:42:13.979719Z","updated_at":"2018-10-24T13:28:59.269436Z","companies":[{"member_since":"2018-01-25T14:30:15.435527Z","id":120378,"name":"CompanyMood"}],"attributes":[{"name_std":"created_at","name":"created_at","value":"2015-03-13
        11:45:35","id":286115,"description":"When has that user been created? (Self
        or invited)"},{"name_std":"company_admin","name":"company_admin","value":"True","id":286120,"description":""}],"gravatar_url":null,"lists":[{"id":12342,"name":"General
        list","description":"A first list"}],"gravatar_url":null,"tags":[{"name":"CompanyMood
        team member", "id":9827}],"notifications":true,"facebook_url":null,"linkedin_url":null,"twitter_url":null,"google_url":null,"last_contacted":null,"user_id":"27879615-a2e7-480f-938e-4df724567d20"}]}'
    http_version: 
  recorded_at: Thu, 25 Oct 2018 08:35:54 GMT
- request:
    method: get
    uri: https://app.userengage.com/api/public/users/?page=1
    body:
      encoding: US-ASCII
      string: ''
    headers:
      User-Agent:
      - UserEngage-Ruby/0.0.6
      Authorization:
      - Token <my-test-token>
      Content-Type:
      - application/json
      Accept-Encoding:
      - gzip;q=1.0,deflate;q=0.6,identity;q=0.3
      Accept:
      - "*/*"
  response:
    status:
      code: 200
      message: OK
    headers:
      Date:
      - Thu, 25 Oct 2018 08:35:56 GMT
      Content-Type:
      - application/json
      Transfer-Encoding:
      - chunked
      Connection:
      - keep-alive
      Set-Cookie:
      - __cfduid=d2995562f95b2515708d589a3857baf0a1540456556; expires=Fri, 25-Oct-19
        08:35:56 GMT; path=/; domain=.userengage.com; HttpOnly
      Allow:
      - GET, POST, HEAD, OPTIONS
      X-Frame-Options:
      - SAMEORIGIN
      Vary:
      - Cookie
      Expect-Ct:
      - max-age=604800, report-uri="https://report-uri.cloudflare.com/cdn-cgi/beacon/expect-ct"
      Server:
      - cloudflare
      Cf-Ray:
      - 46f35a44edf963d9-FRA
    body:
      encoding: ASCII-8BIT
      string: '{"count":111,"next":"https://app.userengage.com/api/public/users/?page=2","previous":null,"results":[{"id":111,"key":"gpHcuWmhu4eT","name":"Markus
        Schwed","email":"markus@company-mood.com","gender":"unknown","status":"user","phone_number":null,"first_seen":"2018-02-09T10:42:13.956452Z","last_seen":"2018-10-24T13:28:59.264665Z","page_views":1191,"last_ip":"91.67.113.209","timezone":"Europe/Kaliningrad","city":"Alzey","region":"Rheinland-Pfalz","country":"Germany","unsubscribed":false,"browser_language":"de","score":0,"browser":"Firefox","os_type":"Windows
        10","resolution":"1920x1080","created_at":"2018-02-09T10:42:13.979719Z","updated_at":"2018-10-24T13:28:59.269436Z","companies":[{"member_since":"2018-01-25T14:30:15.435527Z","id":120378,"name":"CompanyMood"}],"attributes":[{"name_std":"created_at","name":"created_at","value":"2015-03-13
        11:45:35","id":286115,"description":"When has that user been created? (Self
        or invited)"},{"name_std":"company_admin","name":"company_admin","value":"True","id":286120,"description":""}],"gravatar_url":null,"lists":[{"id":12342,"name":"General
        list","description":"A first list"}],"gravatar_url":null,"tags":[{"name":"CompanyMood
        team member", "id":9827}],"notifications":true,"facebook_url":null,"linkedin_url":null,"twitter_url":null,"google_url":null,"last_contacted":null,"user_id":"27879615-a2e7-480f-938e-4df724567d20"}]}'
    http_version: 
  recorded_at: Thu, 25 Oct 2018 08:35:54 GMT
- request:
    method: get
    uri: https://app.userengage.com/api/public/users/?page=2
    body:
      encoding: US-ASCII
      string: ''
    headers:
      User-Agent:
      - UserEngage-Ruby/0.0.6
      Authorization:
      - Token <my-test-token>
      Content-Type:
      - application/json
      Accept-Encoding:
      - gzip;q=1.0,deflate;q=0.6,identity;q=0.3
      Accept:
      - "*/*"
  response:
    status:
      code: 200
      message: OK
    headers:
      Date:
      - Thu, 25 Oct 2018 13:10:07 GMT
      Content-Type:
      - application/json
      Transfer-Encoding:
      - chunked
      Connection:
      - keep-alive
      Set-Cookie:
      - __cfduid=df2e263165fb12baee00a410bf262af691540473006; expires=Fri, 25-Oct-19
        13:10:06 GMT; path=/; domain=.userengage.com; HttpOnly
      Allow:
      - GET, POST, HEAD, OPTIONS
      Vary:
      - Cookie
      X-Frame-Options:
      - SAMEORIGIN
      Expect-Ct:
      - max-age=604800, report-uri="https://report-uri.cloudflare.com/cdn-cgi/beacon/expect-ct"
      Server:
      - cloudflare
      Cf-Ray:
      - 46f4ebe3da2cc26f-FRA
    body:
      encoding: ASCII-8BIT
      string: '{"count":111,"next":null,"previous":"https://app.userengage.com/api/public/users/?page=1","results":[{"id":222,"key":"gpHcuWmhu4eT","name":"Markus
        Schwed","email":"markus@company-mood.com","gender":"unknown","status":"user","phone_number":null,"first_seen":"2018-02-09T10:42:13.956452Z","last_seen":"2018-10-24T13:28:59.264665Z","page_views":1191,"last_ip":"91.67.113.209","timezone":"Europe/Kaliningrad","city":"Alzey","region":"Rheinland-Pfalz","country":"Germany","unsubscribed":false,"browser_language":"de","score":0,"browser":"Firefox","os_type":"Windows
        10","resolution":"1920x1080","created_at":"2018-02-09T10:42:13.979719Z","updated_at":"2018-10-24T13:28:59.269436Z","companies":[{"member_since":"2018-01-25T14:30:15.435527Z","id":120378,"name":"CompanyMood"}],"attributes":[{"name_std":"created_at","name":"created_at","value":"2015-03-13
        11:45:35","id":286115,"description":"When has that user been created? (Self
        or invited)"},{"name_std":"company_admin","name":"company_admin","value":"True","id":286120,"description":""}],"gravatar_url":null,"lists":[{"id":12342,"name":"General
        list","description":"A first list"}],"gravatar_url":null,"tags":[{"name":"CompanyMood
        team member", "id":9827}],"notifications":true,"facebook_url":null,"linkedin_url":null,"twitter_url":null,"google_url":null,"last_contacted":null,"user_id":"27879615-a2e7-480f-938e-4df724567d20"}]}'
    http_version: 
  recorded_at: Thu, 25 Oct 2018 13:10:05 GMT
recorded_with: VCR 4.0.0
